<?xml version="1.0" encoding="iso-8859-1"?>
<!-- Generator: Adobe Illustrator 19.0.0, SVG Export Plug-In . SVG Version: 6.00 Build 0)  -->
<svg version="1.1" id="Capa_1" xmlns="http://www.w3.org/2000/svg" xmlns:xlink="http://www.w3.org/1999/xlink" x="0px" y="0px"
	 viewBox="0 0 468.293 468.293" style="enable-background:new 0 0 468.293 468.293;" xml:space="preserve">
<path style="fill:#3A556A;" d="M468.293,178.407v27.697c0,2.702-2.123,4.825-4.825,4.825c-2.654,0-4.825-2.123-4.825-4.825v-27.697
	c0-1.544-0.868-2.895-2.268-3.474l-15.489-6.804c-7.914-3.426-16.359-5.211-24.995-5.211h-12.74c-2.702,0-4.825-2.123-4.825-4.825
	c0-2.654,2.123-4.825,4.825-4.825h12.74c9.988,0,19.687,2.027,28.855,6.032l15.489,6.756
	C465.157,168.177,468.293,173.05,468.293,178.407z"/>
<path style="fill:#F7BE56;" d="M453.581,281.535v12.739c0,5.163-4.15,9.361-9.314,9.361h-425.4C8.444,303.635,0,295.19,0,284.816
	V168.767c0-10.423,8.541-18.915,18.963-18.819l376.424,1.93l16.212,0.048l5.453,0.048c5.067,0.048,9.747,2.557,12.498,6.755
	C447.114,185.463,457.055,223.534,453.581,281.535z"/>
<rect x="177.67" y="258.71" style="fill:#D5D6DB;" width="215.015" height="44.925"/>
<rect x="390.244" y="216.788" style="fill:#3A556A;" width="4.827" height="86.796"/>
<g>
	<path style="fill:#64798A;" d="M114.425,139.575H71.798c-2.667,0-4.825-2.158-4.825-4.825c0-2.667,2.158-4.825,4.825-4.825h42.627
		c2.667,0,4.825,2.158,4.825,4.825C119.251,137.416,117.092,139.575,114.425,139.575z"/>
	<path style="fill:#64798A;" d="M318.295,139.575h-42.627c-2.667,0-4.825-2.158-4.825-4.825c0-2.667,2.158-4.825,4.825-4.825h42.627
		c2.667,0,4.825,2.158,4.825,4.825C323.121,137.416,320.962,139.575,318.295,139.575z"/>
</g>
<polygon style="fill:#D5D6DB;" points="261.581,155.256 261.581,150.237 244.499,133.156 137.329,133.156 137.329,155.256 "/>
<polygon style="fill:#64798A;" points="251.212,139.868 244.499,133.156 137.329,133.156 137.329,139.868 "/>
<polygon style="fill:#27A2DB;" points="415.914,151.965 411.6,151.926 19.302,149.948 19.302,216.816 438.533,216.816 "/>
<path style="fill:#64798A;" d="M453.581,281.535v12.739c0,5.163-4.15,9.361-9.314,9.361h-10.326v-14.428
	c3.377-64.129-5.838-106.929-22.342-137.281l5.453,0.048c5.067,0.048,9.747,2.557,12.498,6.755
	C447.114,185.463,457.055,223.534,453.581,281.535z"/>
<path style="fill:#E56353;" d="M220.946,195.536c4.536,4.536,8.348,11.967,10.857,21.28h-41.835
	c2.509-9.313,6.32-16.744,10.857-21.28c-7.914-7.914-13.559-24.706-14.234-44.731l22.099,0.097l4.44,0.048l22.099,0.096
	C234.458,170.927,228.812,187.671,220.946,195.536z"/>
<g>
	<rect x="208.69" y="150.928" style="fill:#64798A;" width="4.439" height="65.892"/>
	<path style="fill:#64798A;" d="M220.975,195.547c0.578,0.579,1.158,1.255,1.736,1.93h-23.644c0.578-0.676,1.158-1.351,1.736-1.93
		c-0.772-0.772-1.495-1.592-2.171-2.509h24.513C222.47,193.955,221.747,194.775,220.975,195.547z"/>
</g>
<path style="fill:#E56353;" d="M127.577,195.536c4.536,4.536,8.348,11.967,10.904,21.28H96.598
	c2.558-9.313,6.321-16.744,10.857-21.28c-7.913-7.962-13.655-24.995-14.283-45.213l22.149,0.096l4.439,0.048l22.1,0.097
	C141.184,170.686,135.538,187.575,127.577,195.536z"/>
<g>
	<rect x="115.319" y="150.441" style="fill:#64798A;" width="4.439" height="66.373"/>
	<path style="fill:#64798A;" d="M127.614,195.547c0.578,0.579,1.158,1.255,1.736,1.93h-23.644c0.578-0.676,1.158-1.351,1.736-1.93
		c-0.772-0.772-1.495-1.592-2.171-2.509h24.513C129.109,193.955,128.386,194.775,127.614,195.547z"/>
</g>
<path style="fill:#E56353;" d="M315.378,195.536c4.536,4.536,8.348,11.967,10.857,21.28H284.4c2.509-9.313,6.32-16.744,10.857-21.28
	c-7.866-7.865-13.463-24.464-14.284-44.248l22.1,0.096l4.439,0.048l22.1,0.097C328.793,171.217,323.195,187.719,315.378,195.536z"/>
<g>
	<rect x="303.079" y="151.408" style="fill:#64798A;" width="4.439" height="65.405"/>
	<path style="fill:#64798A;" d="M315.4,195.547c0.578,0.579,1.158,1.255,1.736,1.93h-23.644c0.578-0.676,1.158-1.351,1.736-1.93
		c-0.772-0.772-1.495-1.592-2.171-2.509h24.513C316.895,193.955,316.171,194.775,315.4,195.547z"/>
</g>
<path style="fill:#E56353;" d="M391.281,151.867v64.949h-20.653c2.558-9.313,6.37-16.744,10.857-21.28
	c-7.769-7.817-13.366-24.223-14.234-43.814l22.1,0.097L391.281,151.867z"/>
<rect x="389.351" y="151.845" style="fill:#64798A;" width="1.929" height="64.974"/>
<rect x="127.582" y="218.562" style="fill:#FCD462;" width="50.076" height="85.073"/>
<path style="fill:#D5D6DB;" d="M171.202,252.534c0,4.053-3.234,7.286-7.335,7.286c-4.005,0-7.286-3.233-7.286-7.286
	c0-4.101,3.281-7.334,7.286-7.334C167.969,245.2,171.202,248.433,171.202,252.534z"/>
<rect x="177.67" y="258.71" style="fill:#E1E6E9;" width="60.204" height="44.925"/>
<g>
	<path style="fill:#DC8744;" d="M225.1,278.086c1.013,1.737,0.434,3.957-1.303,4.97c-4.487,2.606-8.976,3.909-13.415,3.909
		c-4.439,0-8.831-1.303-13.221-3.957c-1.689-1.062-2.219-3.281-1.206-4.97c1.061-1.737,3.281-2.268,5.019-1.206
		c6.273,3.86,12.593,3.812,19.205-0.048C221.866,275.77,224.086,276.349,225.1,278.086z"/>
	<path style="fill:#DC8744;" d="M282.714,283.057c-4.487,2.606-8.976,3.909-13.415,3.909s-8.879-1.303-13.221-3.957
		c-1.689-1.062-2.219-3.281-1.206-4.97c1.061-1.737,3.281-2.268,4.97-1.206c6.321,3.86,12.593,3.812,19.253-0.048
		c1.688-1.013,3.909-0.434,4.922,1.303C285.03,279.824,284.452,282.043,282.714,283.057z"/>
</g>
<rect x="403.169" y="256.431" style="fill:#64798A;" width="9.653" height="13.899"/>
<path style="fill:#2F4859;" d="M367.924,303.631c0,19.197-15.541,34.737-34.741,34.737c-19.193,0-34.734-15.541-34.734-34.737
	s15.541-34.736,34.734-34.736C352.384,268.896,367.924,284.434,367.924,303.631z"/>
<path style="fill:#64798A;" d="M355.356,303.504c0,12.295-9.994,22.286-22.289,22.286c-12.039,0-22.027-9.991-22.027-22.286
	c0-12.295,9.988-22.03,22.027-22.03C345.362,281.474,355.356,291.209,355.356,303.504z"/>
<path style="fill:#EBF0F3;" d="M355.355,303.499c0,1.748-0.159,3.417-0.634,5.005c-3.02-0.635-6.118,0.239-7.787,3.099
	c-1.589,2.781-0.875,6.039,1.271,8.264c-2.384,2.225-5.244,3.893-8.423,4.926c-0.873-2.94-3.337-5.245-6.596-5.245
	c-3.257,0-5.719,2.305-6.594,5.324c-3.18-1.033-6.039-2.702-8.423-5.006c2.146-2.225,2.861-5.404,1.271-8.264
	c-1.668-2.86-4.766-3.734-7.787-3.099c-0.475-1.589-0.634-3.258-0.634-5.005c0-1.669,0.159-3.258,0.557-4.768
	c3.018,0.715,6.196-0.238,7.864-3.019c1.67-2.86,0.875-6.198-1.271-8.423c2.384-2.145,5.244-3.814,8.423-4.847
	c0.952,3.019,3.337,5.324,6.594,5.324c3.259,0,5.643-2.304,6.596-5.244c3.259,1.033,6.118,2.701,8.503,4.847
	c-2.225,2.304-2.939,5.562-1.35,8.343c1.589,2.702,4.846,3.655,7.866,3.019C355.196,300.241,355.355,301.83,355.355,303.499z"/>
<path style="fill:#2F4859;" d="M100.071,303.631c0,19.197-15.541,34.737-34.741,34.737c-19.193,0-34.734-15.541-34.734-34.737
	s15.541-34.736,34.734-34.736C84.53,268.896,100.071,284.434,100.071,303.631z"/>
<path style="fill:#64798A;" d="M87.502,303.504c0,12.295-9.994,22.286-22.289,22.286c-12.039,0-22.027-9.991-22.027-22.286
	c0-12.295,9.988-22.03,22.027-22.03C77.508,281.474,87.502,291.209,87.502,303.504z"/>
<path style="fill:#EBF0F3;" d="M87.501,303.499c0,1.748-0.159,3.417-0.634,5.005c-3.02-0.635-6.118,0.239-7.787,3.099
	c-1.589,2.781-0.875,6.039,1.271,8.264c-2.384,2.225-5.244,3.893-8.423,4.926c-0.873-2.94-3.337-5.245-6.596-5.245
	c-3.257,0-5.719,2.305-6.594,5.324c-3.18-1.033-6.039-2.702-8.423-5.006c2.146-2.225,2.861-5.404,1.271-8.264
	c-1.668-2.86-4.766-3.734-7.787-3.099c-0.475-1.589-0.634-3.258-0.634-5.005c0-1.669,0.159-3.258,0.557-4.768
	c3.019,0.715,6.196-0.238,7.864-3.019c1.67-2.86,0.875-6.198-1.271-8.423c2.384-2.145,5.244-3.814,8.423-4.847
	c0.952,3.019,3.337,5.324,6.594,5.324c3.259,0,5.643-2.304,6.596-5.244c3.259,1.033,6.118,2.701,8.503,4.847
	c-2.225,2.304-2.939,5.562-1.35,8.343c1.589,2.702,4.846,3.655,7.866,3.019C87.342,300.241,87.501,301.83,87.501,303.499z"/>
<g>
</g>
<g>
</g>
<g>
</g>
<g>
</g>
<g>
</g>
<g>
</g>
<g>
</g>
<g>
</g>
<g>
</g>
<g>
</g>
<g>
</g>
<g>
</g>
<g>
</g>
<g>
</g>
<g>
</g>
</svg>
